"priority"
"spec prior"
"priority"
"not recom"
"priority"
"not recom"
"priority"
"priority"
"spec prior"
"spec prior"
"not recom"
"spec prior"
"not recom"
"not recom"
"priority"
"priority"
"priority"
"spec prior"
"spec prior"
"spec prior"
"not recom"
"spec prior"
"spec prior"
"priority"
"not recom"
"not recom"
"spec prior"
"not recom"
"not recom"
"spec prior"
"not recom"
"priority"
"spec prior"
"not recom"
"not recom"
"spec prior"
"not recom"
"priority"
"not recom"
"not recom"
"spec prior"
"priority"
"priority"
"spec prior"
"priority"
"spec prior"
"not recom"
"priority"
"priority"
"not recom"
"not recom"
"spec prior"
"priority"
"spec prior"
"not recom"
"spec prior"
"not recom"
"priority"
"not recom"
"priority"
"priority"
"not recom"
"priority"
"priority"
"very recom"
"spec prior"
"not recom"
"priority"
"priority"
"not recom"
"spec prior"
"not recom"
"not recom"
"spec prior"
"not recom"
"spec prior"
"priority"
"priority"
"not recom"
"priority"
"spec prior"
"not recom"
"spec prior"
"spec prior"
"spec prior"
"priority"
"very recom"
"not recom"
"not recom"
"not recom"
"not recom"
"priority"
"not recom"
"spec prior"
"not recom"
"priority"
"spec prior"
"spec prior"
"not recom"
"not recom"
"priority"
"not recom"
"not recom"
"priority"
"spec prior"
"priority"
"not recom"
"priority"
"spec prior"
"priority"
"spec prior"
"priority"
"spec prior"
"priority"
"not recom"
"priority"
"not recom"
"spec prior"
"not recom"
"priority"
"not recom"
"not recom"
"not recom"
"priority"
"priority"
"not recom"
"priority"
"not recom"
"spec prior"
"priority"
"priority"
"not recom"
"not recom"
"spec prior"
"not recom"
"priority"
"priority"
"not recom"
"not recom"
"not recom"
"not recom"
"not recom"
"spec prior"
"priority"
"priority"
"priority"
"priority"
"priority"
"spec prior"
"priority"
"not recom"
"not recom"
"priority"
"spec prior"
"spec prior"
"spec prior"
"not recom"
"priority"
"priority"
"spec prior"
"priority"
"not recom"
"spec prior"
"very recom"
"priority"
"spec prior"
"spec prior"
"spec prior"
"very recom"
"priority"
"priority"
"not recom"
"priority"
"not recom"
"not recom"
"not recom"
"very recom"
"spec prior"
"not recom"
"priority"
"spec prior"
"priority"
"not recom"
"priority"
"priority"
"spec prior"
"priority"
"spec prior"
"spec prior"
"very recom"
"priority"
"priority"
"priority"
"spec prior"
"priority"
"spec prior"
"spec prior"
"priority"
"not recom"
"not recom"
"priority"
"not recom"
"very recom"
"not recom"
"not recom"
"priority"
"priority"
"priority"
"spec prior"
"priority"
"priority"
"priority"
"spec prior"
"not recom"
"not recom"
"spec prior"
"not recom"
"spec prior"
"spec prior"
"not recom"
"very recom"
"not recom"
"spec prior"
"priority"
"spec prior"
"not recom"
"priority"
"priority"
"priority"
"spec prior"
"priority"
"priority"
"priority"
"not recom"
"spec prior"
"spec prior"
"priority"
"not recom"
"spec prior"
"spec prior"
"priority"
"priority"
"priority"
"spec prior"
"spec prior"
"spec prior"
"priority"
"priority"
"priority"
"spec prior"
"not recom"
"spec prior"
"spec prior"
"not recom"
"spec prior"
"not recom"
"not recom"
"spec prior"
"priority"
"spec prior"
"spec prior"
"priority"
"priority"
"priority"
"not recom"
"priority"
"priority"
"not recom"
"not recom"
"spec prior"
"spec prior"
"not recom"
"not recom"
"not recom"
"not recom"
"spec prior"
"not recom"
"spec prior"
"priority"
"not recom"
"very recom"
"spec prior"
"not recom"
"not recom"
"not recom"
"priority"
"priority"
"spec prior"
"priority"
"spec prior"
"spec prior"
"spec prior"
"spec prior"
"spec prior"
"not recom"
"priority"
"spec prior"
"spec prior"
"spec prior"
"spec prior"
"priority"
"not recom"
"spec prior"
"spec prior"
"not recom"
"spec prior"
"priority"
"not recom"
"not recom"
"priority"
"spec prior"
"priority"
"priority"
"not recom"
"spec prior"
"not recom"
"not recom"
"priority"
"priority"
"not recom"
"priority"
"priority"
"spec prior"
"priority"
"priority"
"not recom"
"spec prior"
"spec prior"
"priority"
"not recom"
"not recom"
"not recom"
"priority"
"priority"
"not recom"
"spec prior"
"not recom"
"not recom"
"spec prior"
"priority"
"not recom"
"not recom"
"priority"
"not recom"
"priority"
"not recom"
"spec prior"
"spec prior"
"priority"
"not recom"
"spec prior"
"not recom"
"not recom"
"spec prior"
"not recom"
"not recom"
"priority"
"not recom"
"not recom"
"spec prior"
"spec prior"
"spec prior"
"not recom"
"spec prior"
"not recom"
"spec prior"
"priority"
"spec prior"
"spec prior"
"not recom"
"priority"
"spec prior"
"spec prior"
"spec prior"
"not recom"
"priority"
"not recom"
"spec prior"
"not recom"
"priority"
"priority"
"not recom"
"not recom"
"priority"
"spec prior"
"spec prior"
"spec prior"
"not recom"
"spec prior"
"not recom"
"priority"
"not recom"
"very recom"
"spec prior"
"priority"
"priority"
"priority"
"priority"
"spec prior"
"priority"
"priority"
"spec prior"
"not recom"
"spec prior"
"spec prior"
"spec prior"
"spec prior"
"priority"
"priority"
"not recom"
"spec prior"
"priority"
"not recom"
"priority"
"spec prior"
"not recom"
"priority"
"not recom"
"priority"
"spec prior"
"not recom"
"not recom"
"spec prior"
"not recom"
"spec prior"
"not recom"
"priority"
"priority"
"not recom"
"priority"
"spec prior"
"not recom"
"not recom"
"priority"
"not recom"
"not recom"
"not recom"
"spec prior"
"spec prior"
"spec prior"
"very recom"
"not recom"
"not recom"
"priority"
"spec prior"
"not recom"
"not recom"
"spec prior"
"priority"
"priority"
"priority"
"not recom"
"not recom"
"priority"
"not recom"
"priority"
"spec prior"
"not recom"
"spec prior"
"spec prior"
"spec prior"
"priority"
"priority"
"priority"
"spec prior"
"not recom"
"priority"
"spec prior"
"priority"
"spec prior"
"priority"
"not recom"
"not recom"
"priority"
"not recom"
"priority"
"not recom"
"not recom"
"priority"
"not recom"
"not recom"
"not recom"
"priority"
"spec prior"
"not recom"
"spec prior"
"priority"
"not recom"
"very recom"
"priority"
"priority"
"priority"
"priority"
"not recom"
"priority"
"not recom"
"priority"
"spec prior"
"spec prior"
"not recom"
"spec prior"
"spec prior"
"priority"
"not recom"
"spec prior"
"spec prior"
"not recom"
"spec prior"
"spec prior"
"priority"
"not recom"
"spec prior"
"spec prior"
"not recom"
"priority"
"not recom"
"priority"
"not recom"
"priority"
"spec prior"
"not recom"
"spec prior"
"spec prior"
"spec prior"
"spec prior"
"spec prior"
"not recom"
"spec prior"
"not recom"
"priority"
"not recom"
"not recom"
"priority"
"not recom"
"not recom"
"priority"
"not recom"
"spec prior"
"priority"
"priority"
"priority"
"not recom"
"not recom"
"spec prior"
"spec prior"
"spec prior"
"priority"
"priority"
"spec prior"
"not recom"
"priority"
"spec prior"
"priority"
"priority"
"spec prior"
"not recom"
"not recom"
"not recom"
"priority"
"priority"
"priority"
"not recom"
"spec prior"
"priority"
"spec prior"
"priority"
"priority"
"priority"
"not recom"
"not recom"
"spec prior"
"priority"
"not recom"
"priority"
"spec prior"
"spec prior"
"spec prior"
"not recom"
"not recom"
"not recom"
"not recom"
"priority"
"priority"
"priority"
"not recom"
"not recom"
"not recom"
"spec prior"
"not recom"
"not recom"
"not recom"
"priority"
"priority"
"spec prior"
"not recom"
"spec prior"
"not recom"
"spec prior"
"not recom"
"priority"
"priority"
"not recom"
"priority"
"priority"
"very recom"
"not recom"
"priority"
"not recom"
"spec prior"
"not recom"
"spec prior"
"priority"
"spec prior"
"spec prior"
"spec prior"
"priority"
"spec prior"
"not recom"
"spec prior"
"spec prior"
"not recom"
"priority"
"priority"
"spec prior"
"not recom"
"spec prior"
"not recom"
"not recom"
"priority"
"priority"
"priority"
"not recom"
"not recom"
"priority"
"not recom"
"spec prior"
"spec prior"
"priority"
"spec prior"
"spec prior"
"priority"
"spec prior"
"very recom"
"priority"
"not recom"
"not recom"
"spec prior"
"spec prior"
"not recom"
"not recom"
"priority"
"spec prior"
"spec prior"
"priority"
"spec prior"
"priority"
"spec prior"
"priority"
"priority"
"not recom"
"not recom"
"priority"
"not recom"
"not recom"
"priority"
"priority"
"spec prior"
"not recom"
"not recom"
"spec prior"
"spec prior"
"priority"
"not recom"
"priority"
"priority"
"priority"
"spec prior"
"priority"
"spec prior"
"priority"
"spec prior"
"priority"
"not recom"
"priority"
"not recom"
"not recom"
"spec prior"
"spec prior"
"spec prior"
"priority"
"spec prior"
"not recom"
"not recom"
"not recom"
"priority"
"not recom"
"not recom"
"very recom"
"priority"
"not recom"
"priority"
"spec prior"
"spec prior"
"not recom"
"priority"
"priority"
"not recom"
"not recom"
"priority"
"not recom"
"priority"
"priority"
"spec prior"
"spec prior"
"priority"
"not recom"
"not recom"
"not recom"
"priority"
"priority"
"spec prior"
"not recom"
"spec prior"
"priority"
"not recom"
"spec prior"
"spec prior"
"not recom"
"not recom"
"spec prior"
"spec prior"
"not recom"
"spec prior"
"spec prior"
"not recom"
"spec prior"
"not recom"
"priority"
"not recom"
"priority"
"priority"
"not recom"
"priority"
"spec prior"
"spec prior"
"spec prior"
"spec prior"
"priority"
"very recom"
"spec prior"
"not recom"
"spec prior"
"spec prior"
"priority"
"priority"
"priority"
"not recom"
"priority"
"spec prior"
"not recom"
"not recom"
"priority"
"spec prior"
"priority"
"priority"
"priority"
"priority"
"priority"
"priority"
"not recom"
"spec prior"
"priority"
"not recom"
"not recom"
"priority"
"spec prior"
"not recom"
"not recom"
"spec prior"
"spec prior"
"not recom"
"not recom"
"priority"
"priority"
"spec prior"
"not recom"
"not recom"
"priority"
"priority"
"spec prior"
"spec prior"
"not recom"
"spec prior"
"not recom"
"not recom"
"priority"
"spec prior"
"priority"
"priority"
"priority"
"priority"
"priority"
"spec prior"
"not recom"
"spec prior"
"spec prior"
"not recom"
"spec prior"
"not recom"
"priority"
"spec prior"
"priority"
"spec prior"
"spec prior"
"priority"
"priority"
"spec prior"
"spec prior"
"spec prior"
"spec prior"
"spec prior"
"not recom"
"priority"
"not recom"
"spec prior"
"priority"
"spec prior"
"spec prior"
"not recom"
"priority"
"spec prior"
"spec prior"
"spec prior"
"spec prior"
"priority"
"not recom"
"spec prior"
"spec prior"
"priority"
"spec prior"
"spec prior"
"not recom"
"priority"
"spec prior"
"not recom"
"priority"
"not recom"
"priority"
"spec prior"
"priority"
"not recom"
"spec prior"
"spec prior"
"spec prior"
"spec prior"
"not recom"
"spec prior"
"not recom"
"not recom"
"priority"
"not recom"
"priority"
"spec prior"
"priority"
"priority"
"priority"
"priority"
"not recom"
"spec prior"
"not recom"
"priority"
"spec prior"
"spec prior"
"not recom"
"spec prior"
"spec prior"
"not recom"
"very recom"
"priority"
"priority"
"not recom"
"priority"
"spec prior"
"priority"
"priority"
"priority"
"not recom"
"spec prior"
"very recom"
"not recom"
"priority"
"priority"
"not recom"
"not recom"
"spec prior"
"spec prior"
"not recom"
"priority"
"not recom"
"not recom"
"priority"
"not recom"
"spec prior"
"not recom"
"priority"
"priority"
"not recom"
"not recom"
"spec prior"
"priority"
"not recom"
"spec prior"
"spec prior"
"spec prior"
"priority"
"not recom"
"priority"
"spec prior"
"very recom"
"spec prior"
"not recom"
"spec prior"
"not recom"
"spec prior"
"priority"
"not recom"
"not recom"
"not recom"
"not recom"
"spec prior"
"spec prior"
"not recom"
"spec prior"
"not recom"
"priority"
"spec prior"
"priority"
"spec prior"
"priority"
"priority"
"not recom"
"not recom"
"not recom"
"spec prior"
"spec prior"
"very recom"
"not recom"
"not recom"
"not recom"
"spec prior"
"spec prior"
"not recom"
"spec prior"
"priority"
"spec prior"
"not recom"
"not recom"
"not recom"
"not recom"
"spec prior"
"priority"
"not recom"
"spec prior"
"not recom"
"not recom"
"spec prior"
"very recom"
"spec prior"
"priority"
"not recom"
"priority"
"not recom"
"priority"
"spec prior"
"spec prior"
"priority"
"not recom"
"priority"
"not recom"
"not recom"
"not recom"
"spec prior"
"priority"
"spec prior"
"not recom"
"not recom"
"not recom"
"priority"
"spec prior"
"priority"
"not recom"
"priority"
"priority"
"spec prior"
"priority"
"spec prior"
"spec prior"
"priority"
"priority"
"priority"
"spec prior"
"spec prior"
"spec prior"
"not recom"
"priority"
"spec prior"
"not recom"
"spec prior"
"not recom"
"spec prior"
"not recom"
"spec prior"
"spec prior"
"priority"
"priority"
"not recom"
"priority"
"not recom"
"not recom"
"not recom"
"spec prior"
"very recom"
"not recom"
"not recom"
"priority"
"spec prior"
"priority"
"not recom"
"very recom"
"priority"
"not recom"
"priority"
"not recom"
"spec prior"
"not recom"
"spec prior"
"priority"
"priority"
"not recom"
"spec prior"
"not recom"
"not recom"
"priority"
"spec prior"
"very recom"
"spec prior"
"not recom"
"spec prior"
"not recom"
"not recom"
"spec prior"
"priority"
"not recom"
"spec prior"
"priority"
"priority"
"not recom"
"priority"
"priority"
"not recom"
"not recom"
"spec prior"
"priority"
"priority"
"spec prior"
"priority"
"spec prior"
"priority"
"priority"
"priority"
"not recom"
"not recom"
"priority"
"not recom"
"not recom"
"not recom"
"not recom"
"not recom"
"not recom"
"not recom"
"priority"
"priority"
"spec prior"
"spec prior"
"not recom"
"spec prior"
"not recom"
"priority"
"priority"
"spec prior"
"spec prior"
"spec prior"
"spec prior"
"not recom"
"not recom"
"priority"
"priority"
"not recom"
"spec prior"
"priority"
"priority"
"spec prior"
"priority"
"spec prior"
"spec prior"
"priority"
"priority"
"spec prior"
"not recom"
"not recom"
"spec prior"
"spec prior"
"priority"
"priority"
"priority"
"priority"
"priority"
"priority"
"not recom"
"not recom"
"spec prior"
"priority"
"spec prior"
"not recom"
"priority"
"priority"
"priority"
"not recom"
"spec prior"
"spec prior"
"not recom"
"spec prior"
"spec prior"
"not recom"
"not recom"
"not recom"
"not recom"
"very recom"
"not recom"
"spec prior"
"priority"
"priority"
"spec prior"
"priority"
"spec prior"
"spec prior"
"spec prior"
"spec prior"
"priority"
"spec prior"
"spec prior"
"priority"
"priority"
"spec prior"
"not recom"
"priority"
"priority"
"spec prior"
"priority"
"priority"
"not recom"
"spec prior"
"not recom"
"spec prior"
"not recom"
"priority"
"spec prior"
"spec prior"
"very recom"
"not recom"
"not recom"
"spec prior"
"not recom"
"spec prior"
"not recom"
"very recom"
"spec prior"
"spec prior"
"spec prior"
"priority"
"priority"
"priority"
"priority"
"spec prior"
"priority"
"not recom"
"priority"
"priority"
"spec prior"
"not recom"
"priority"
"spec prior"
"not recom"
"priority"
"spec prior"
"priority"
"priority"
"spec prior"
"not recom"
"not recom"
"priority"
"priority"
"not recom"
"spec prior"
"not recom"
"not recom"
"priority"
"priority"
"priority"
"not recom"
"not recom"
"priority"
"not recom"
"not recom"
"spec prior"
"not recom"
"priority"
"spec prior"
"very recom"
"not recom"
"spec prior"
"priority"
"priority"
"not recom"
"spec prior"
"not recom"
"spec prior"
"spec prior"
"spec prior"
"priority"
"spec prior"
"priority"
"priority"
"priority"
"priority"
"not recom"
"priority"
"spec prior"
"very recom"
"spec prior"
"spec prior"
"not recom"
"priority"
"spec prior"
"spec prior"
"spec prior"
"spec prior"
"priority"
"spec prior"
"not recom"
"not recom"
"priority"
"spec prior"
"not recom"
"priority"
"not recom"
"priority"
"not recom"
"spec prior"
"spec prior"
"priority"
"priority"
"priority"
"not recom"
"priority"
"not recom"
"priority"
"priority"
"very recom"
"priority"
"priority"
"not recom"
"priority"
"spec prior"
"spec prior"
"not recom"
"not recom"
"spec prior"
"priority"
"spec prior"
"spec prior"
"not recom"
"priority"
"not recom"
"spec prior"
"spec prior"
"very recom"
"priority"
"priority"
"spec prior"
"not recom"
"not recom"
"not recom"
"spec prior"
"priority"
"not recom"
"spec prior"
"spec prior"
"not recom"
"spec prior"
"spec prior"
"spec prior"
"spec prior"
"not recom"
"spec prior"
"spec prior"
"spec prior"
"priority"
"not recom"
"spec prior"
"not recom"
"priority"
"priority"
"spec prior"
"not recom"
"not recom"
"not recom"
"spec prior"
"spec prior"
"priority"
"not recom"
"spec prior"
"not recom"
"spec prior"
"priority"
"spec prior"
"priority"
"spec prior"
"priority"
"priority"
"spec prior"
"priority"
"not recom"
"priority"
"not recom"
"not recom"
"not recom"
"not recom"
"priority"
"spec prior"
"priority"
"spec prior"
"priority"
"not recom"
"spec prior"
"priority"
"priority"
"priority"
"priority"
"not recom"
"spec prior"
"priority"
"spec prior"
"not recom"
"priority"
"spec prior"
"spec prior"
"priority"
"spec prior"
"priority"
"spec prior"
"priority"
"priority"
"priority"
"not recom"
"priority"
"not recom"
"not recom"
"spec prior"
"spec prior"
"priority"
"not recom"
"not recom"
"spec prior"
"not recom"
"priority"
"priority"
"very recom"
"priority"
"spec prior"
"not recom"
"not recom"
"priority"
"spec prior"
"priority"
"spec prior"
"not recom"
"priority"
"not recom"
"spec prior"
"not recom"
"spec prior"
"spec prior"
"priority"
"spec prior"
"not recom"
"spec prior"
"priority"
"spec prior"
"not recom"
"priority"
"spec prior"
"spec prior"
"not recom"
"spec prior"
"spec prior"
"spec prior"
"spec prior"
"spec prior"
"not recom"
"not recom"
"not recom"
"priority"
"priority"
"spec prior"
"priority"
"priority"
"priority"
"spec prior"
"not recom"
"spec prior"
"spec prior"
"spec prior"
"not recom"
"priority"
"not recom"
"not recom"
"not recom"
"priority"
"spec prior"
"priority"
"priority"
"priority"
"not recom"
"priority"
"priority"
"not recom"
"priority"
"priority"
"not recom"
"priority"
"spec prior"
"priority"
"spec prior"
"priority"
"not recom"
"not recom"
"priority"
"spec prior"
"spec prior"
"priority"
"very recom"
"priority"
"not recom"
"spec prior"
"priority"
"not recom"
"spec prior"
"priority"
"spec prior"
"not recom"
"priority"
"spec prior"
"priority"
"priority"
"not recom"
"not recom"
"spec prior"
"spec prior"
"not recom"
"not recom"
"spec prior"
"priority"
"spec prior"
"priority"
"priority"
"spec prior"
"spec prior"
"priority"
"priority"
"spec prior"
"spec prior"
"priority"
"spec prior"
"not recom"
"not recom"
"priority"
"spec prior"
"priority"
"spec prior"
"spec prior"
"spec prior"
"not recom"
"spec prior"
"spec prior"
"not recom"
"spec prior"
"priority"
"not recom"
"spec prior"
"priority"
"priority"
"not recom"
"not recom"
"priority"
"not recom"
"not recom"
"not recom"
"priority"
"spec prior"
"not recom"
"not recom"
"spec prior"
"spec prior"
"spec prior"
"spec prior"
"spec prior"
"priority"
"spec prior"
"priority"
"spec prior"
"not recom"
"not recom"
"not recom"
"very recom"
"spec prior"
"not recom"
"priority"
"spec prior"
"priority"
"not recom"
"not recom"
"not recom"
"not recom"
"priority"
"priority"
"priority"
"priority"
"priority"
"not recom"
"not recom"
"spec prior"
"priority"
"priority"
"not recom"
"not recom"
"spec prior"
"not recom"
"spec prior"
"not recom"
"priority"
"priority"
"not recom"
"very recom"
"spec prior"
"priority"
"spec prior"
"spec prior"
"not recom"
"not recom"
"priority"
"priority"
"priority"
"not recom"
"not recom"
"spec prior"
"not recom"
"very recom"
"not recom"
"not recom"
"not recom"
"priority"
"priority"
"not recom"
"spec prior"
"not recom"
"spec prior"
"spec prior"
"priority"
"spec prior"
"priority"
"spec prior"
"priority"
"spec prior"
"not recom"
"not recom"
"not recom"
"spec prior"
"not recom"
"not recom"
"priority"
"not recom"
"priority"
"priority"
"priority"
"priority"
"spec prior"
"not recom"
"priority"
"priority"
"spec prior"
"spec prior"
"spec prior"
"priority"
"spec prior"
"priority"
"not recom"
"not recom"
"not recom"
"priority"
"priority"
"priority"
"spec prior"
"not recom"
"not recom"
"not recom"
"priority"
"priority"
"priority"
"spec prior"
"priority"
"not recom"
"not recom"
"spec prior"
"spec prior"
"not recom"
"not recom"
"spec prior"
"priority"
"spec prior"
"priority"
"not recom"
"not recom"
"not recom"
"spec prior"
"not recom"
"priority"
"not recom"
"not recom"
"spec prior"
"spec prior"
"not recom"
"priority"
"not recom"
"spec prior"
"not recom"
"not recom"
"priority"
"priority"
"spec prior"
"priority"
"not recom"
"priority"
"priority"
"not recom"
"priority"
"not recom"
"spec prior"
"spec prior"
"priority"
"spec prior"
"spec prior"
"priority"
"not recom"
"spec prior"
"priority"
"priority"
"not recom"
"spec prior"
"spec prior"
"not recom"
"priority"
"priority"
"priority"
"spec prior"
"not recom"
"priority"
"priority"
"priority"
"not recom"
"not recom"
"not recom"
"priority"
"not recom"
"spec prior"
"priority"
"not recom"
"not recom"
"priority"
"not recom"
"priority"
"spec prior"
"not recom"
"priority"
"not recom"
"spec prior"
"not recom"
"priority"
"not recom"
"not recom"
"not recom"
"spec prior"
"not recom"
"spec prior"
"not recom"
"priority"
"priority"
"not recom"
"spec prior"
"priority"
"priority"
"spec prior"
"priority"
"spec prior"
"not recom"
"not recom"
"priority"
"priority"
"very recom"
"spec prior"
"not recom"
"not recom"
"not recom"
"priority"
"spec prior"
"not recom"
"very recom"
"priority"
"not recom"
"spec prior"
"priority"
"priority"
"priority"
"priority"
"spec prior"
"priority"
"priority"
"spec prior"
"spec prior"
"not recom"
"priority"
"spec prior"
"not recom"
"spec prior"
"spec prior"
"spec prior"
"not recom"
"spec prior"
"spec prior"
"spec prior"
"spec prior"
"priority"
"not recom"
"spec prior"
"priority"
"priority"
"priority"
"not recom"
"spec prior"
"not recom"
"not recom"
"not recom"
"priority"
"spec prior"
"spec prior"
"spec prior"
"priority"
"priority"
"priority"
"spec prior"
"very recom"
"spec prior"
"not recom"
"priority"
"priority"
"priority"
"priority"
"not recom"
"spec prior"
"priority"
"not recom"
"spec prior"
"priority"
"priority"
"not recom"
"priority"
"priority"
"priority"
"not recom"
"not recom"
"spec prior"
"not recom"
"not recom"
"spec prior"
"priority"
"spec prior"
"priority"
"spec prior"
"spec prior"
"priority"
"priority"
"priority"
"spec prior"
"not recom"
"priority"
"not recom"
"not recom"
"priority"
"priority"
"priority"
"priority"
"not recom"
"not recom"
"spec prior"
"priority"
"not recom"
"spec prior"
"spec prior"
"not recom"
"not recom"
"not recom"
"spec prior"
"priority"
"spec prior"
"not recom"
"spec prior"
"priority"
"spec prior"
"priority"
"priority"
"not recom"
"priority"
"spec prior"
"priority"
"priority"
"not recom"
"spec prior"
"spec prior"
"not recom"
"priority"
"spec prior"
"priority"
"priority"
"not recom"
"priority"
"spec prior"
"not recom"
"priority"
"not recom"
"spec prior"
"spec prior"
"spec prior"
"very recom"
"spec prior"
"priority"
"priority"
"priority"
"priority"
"not recom"
"spec prior"
"not recom"
"priority"
"not recom"
"priority"
"spec prior"
"spec prior"
"priority"
"not recom"
"spec prior"
"spec prior"
"priority"
"not recom"
"priority"
"priority"
"not recom"
"spec prior"
"spec prior"
"not recom"
"spec prior"
"spec prior"
"spec prior"
"spec prior"
"priority"
"not recom"
"spec prior"
"spec prior"
"not recom"
"priority"
"priority"
"not recom"
"not recom"
"priority"
"not recom"
"priority"
"spec prior"
"priority"
"priority"
"priority"
"not recom"
"spec prior"
"priority"
"not recom"
"not recom"
"priority"
"not recom"
"not recom"
"spec prior"
"not recom"
"priority"
"priority"
"not recom"
"spec prior"
"priority"
"priority"
"priority"
"priority"
"not recom"
"spec prior"
"not recom"
"priority"
"not recom"
"priority"
"not recom"
"priority"
"spec prior"
"priority"
"spec prior"
"spec prior"
"spec prior"
"spec prior"
"priority"
"priority"
"not recom"
"priority"
"priority"
"not recom"
"not recom"
"priority"
"not recom"
"priority"
"priority"
"not recom"
"priority"
"priority"
"priority"
"priority"
"not recom"
"spec prior"
"priority"
"priority"
"not recom"
"spec prior"
"spec prior"
"priority"
"not recom"
"spec prior"
"priority"
"not recom"
"spec prior"
"priority"
"priority"
"priority"
"not recom"
"spec prior"
"priority"
"priority"
"not recom"
"priority"
"spec prior"
"not recom"
"not recom"
"priority"
"spec prior"
"spec prior"
"priority"
"spec prior"
"not recom"
"priority"
"not recom"
"priority"
"spec prior"
"not recom"
"priority"
"spec prior"
"not recom"
"spec prior"
"priority"
"priority"
"spec prior"
"very recom"
"priority"
"not recom"
"spec prior"
"not recom"
"priority"
"not recom"
"priority"
"priority"
"not recom"
"spec prior"
"spec prior"
"priority"
"priority"
"spec prior"
"priority"
"priority"
"not recom"
"priority"
"spec prior"
"priority"
"not recom"
"not recom"
"not recom"
"not recom"
"not recom"
"spec prior"
"not recom"
"priority"
"not recom"
"not recom"
"spec prior"
"not recom"
"spec prior"
"spec prior"
"not recom"
"priority"
"spec prior"
"spec prior"
"not recom"
"spec prior"
"spec prior"
"spec prior"
"spec prior"
"priority"
"spec prior"
"not recom"
"spec prior"
"spec prior"
"not recom"
"not recom"
"not recom"
"priority"
"spec prior"
"spec prior"
"priority"
"spec prior"
"not recom"
"very recom"
"spec prior"
"priority"
"spec prior"
"priority"
"not recom"
"not recom"
"not recom"
"spec prior"
"not recom"
"not recom"
"priority"
"spec prior"
"not recom"
"priority"
"not recom"
"priority"
"priority"
"priority"
"not recom"
"priority"
"not recom"
"priority"
"spec prior"
"spec prior"
"priority"
"spec prior"
"priority"
"spec prior"
"not recom"
"not recom"
"not recom"
"priority"
"spec prior"
"priority"
"priority"
"priority"
"very recom"
"spec prior"
"very recom"
"not recom"
"priority"
"spec prior"
"not recom"
"very recom"
"spec prior"
"not recom"
"spec prior"
"not recom"
"priority"
"spec prior"
"not recom"
"spec prior"
"not recom"
"priority"
"not recom"
"spec prior"
"spec prior"
"spec prior"
"priority"
"not recom"
"spec prior"
"not recom"
"spec prior"
"priority"
"not recom"
"not recom"
"not recom"
"not recom"
"priority"
"not recom"
"spec prior"
"priority"
"not recom"
"not recom"
"spec prior"
"very recom"
"not recom"
"not recom"
"spec prior"
"spec prior"
"spec prior"
"spec prior"
"priority"
"spec prior"
"not recom"
"not recom"
"priority"
"priority"
"not recom"
"not recom"
"priority"
"not recom"
"priority"
"not recom"
"not recom"
"spec prior"
"spec prior"
"spec prior"
"spec prior"
"priority"
"spec prior"
"not recom"
"not recom"
"priority"
"not recom"
"spec prior"
"spec prior"
"priority"
"not recom"
"not recom"
"priority"
"spec prior"
"priority"
"spec prior"
"spec prior"
"spec prior"
"spec prior"
"spec prior"
"priority"
"priority"
"spec prior"
"not recom"
"priority"
"not recom"
"spec prior"
"not recom"
"priority"
"spec prior"
"not recom"
"priority"
"priority"
"priority"
"very recom"
"not recom"
"not recom"
"not recom"
"spec prior"
"spec prior"
"not recom"
"not recom"
"priority"
"priority"
"priority"
"priority"
"not recom"
"spec prior"
"priority"
"priority"
"spec prior"
"very recom"
"not recom"
"not recom"
"priority"
"priority"
"priority"
"priority"
"not recom"
"priority"
"spec prior"
"not recom"
"spec prior"
"spec prior"
"spec prior"
"spec prior"
"spec prior"
"spec prior"
"very recom"
"spec prior"
"priority"
"priority"
"priority"
"not recom"
"spec prior"
"very recom"
"priority"
"spec prior"
"spec prior"
"priority"
"not recom"
"spec prior"
"not recom"
"priority"
"not recom"
"not recom"
"not recom"
"not recom"
"not recom"
"not recom"
"not recom"
"not recom"
"priority"
"priority"
"not recom"
"not recom"
"spec prior"
"priority"
"not recom"
"not recom"
"not recom"
"priority"
"not recom"
"priority"
"priority"
"priority"
"priority"
"not recom"
"spec prior"
"spec prior"
"not recom"
"spec prior"
"priority"
"not recom"
"priority"
"spec prior"
"not recom"
"spec prior"
"priority"
"not recom"
"not recom"
"spec prior"
"priority"
"priority"
"priority"
"spec prior"
"priority"
"priority"
"not recom"
"not recom"
"spec prior"
"not recom"
"priority"
"priority"
"not recom"
"very recom"
"spec prior"
"priority"
"priority"
"not recom"
"priority"
"not recom"
"spec prior"
"not recom"
"not recom"
"priority"
"spec prior"
"not recom"
"priority"
"not recom"
"not recom"
"priority"
"priority"
"spec prior"
"spec prior"
"not recom"
"spec prior"
"priority"
"spec prior"
"not recom"
"spec prior"
"priority"
"not recom"
"not recom"
"priority"
"spec prior"
"spec prior"
"spec prior"
"priority"
"priority"
"priority"
"not recom"
"not recom"
"not recom"
"priority"
"priority"
"priority"
"priority"
"not recom"
"not recom"
"priority"
"priority"
"spec prior"
"spec prior"
"spec prior"
"spec prior"
"not recom"
"priority"
"priority"
"priority"
"not recom"
"spec prior"
"priority"
"not recom"
"priority"
"spec prior"
"very recom"
"spec prior"
"not recom"
"spec prior"
"very recom"
"not recom"
"spec prior"
"priority"
"priority"
"spec prior"
"priority"
"priority"
"not recom"
"spec prior"
"spec prior"
"priority"
"spec prior"
"not recom"
"not recom"
"spec prior"
"spec prior"
"priority"
"not recom"
"spec prior"
"priority"
"very recom"
"priority"
"priority"
"priority"
"not recom"
"not recom"
"spec prior"
"spec prior"
"spec prior"
"priority"
"not recom"
"priority"
"priority"
"not recom"
"priority"
"spec prior"
"spec prior"
"priority"
"spec prior"
"priority"
"priority"
"priority"
"very recom"
"very recom"
"spec prior"
"spec prior"
"spec prior"
"not recom"
"priority"
"spec prior"
"not recom"
"priority"
"not recom"
"spec prior"
"spec prior"
"not recom"
"spec prior"
"not recom"
"priority"
"spec prior"
"not recom"
"spec prior"
"not recom"
"spec prior"
"priority"
"not recom"
"spec prior"
"not recom"
"not recom"
"not recom"
"not recom"
"not recom"
"spec prior"
"not recom"
"not recom"
"very recom"
"spec prior"
"priority"
"spec prior"
"priority"
"spec prior"
"very recom"
"not recom"
"spec prior"
"priority"
"priority"
"priority"
"spec prior"
"not recom"
"not recom"
"priority"
"spec prior"
"priority"
"not recom"
"spec prior"
"spec prior"
"priority"
"priority"
"spec prior"
"priority"
"spec prior"
"priority"
"spec prior"
"not recom"
"priority"
"spec prior"
"not recom"
"spec prior"
"spec prior"
"priority"
"not recom"
"very recom"
"not recom"
"spec prior"
"priority"
"not recom"
"spec prior"
"not recom"
"spec prior"
"not recom"
"priority"
"spec prior"
"not recom"
"spec prior"
"priority"
"not recom"
"spec prior"
"spec prior"
"not recom"
"spec prior"
"spec prior"
"spec prior"
"spec prior"
"priority"
"not recom"
"priority"
"not recom"
"not recom"
"priority"
"spec prior"
"not recom"
"not recom"
"not recom"
"very recom"
"priority"
"not recom"
"priority"
"not recom"
"priority"
"priority"
"priority"
"not recom"
"spec prior"
"spec prior"
"not recom"
"not recom"
"not recom"
"spec prior"
"not recom"
"not recom"
"not recom"
"not recom"
"not recom"
"spec prior"
"spec prior"
"not recom"
"priority"
"priority"
"not recom"
"not recom"
"not recom"
"priority"
"spec prior"
"priority"
"spec prior"
"very recom"
"priority"
"priority"
"priority"
"priority"
"priority"
"priority"
"priority"
"spec prior"
"not recom"
"spec prior"
"priority"
"priority"
"spec prior"
"priority"
"not recom"
"priority"
"spec prior"
"not recom"
"spec prior"
"priority"
"priority"
"spec prior"
"spec prior"
"priority"
"priority"
"priority"
"spec prior"
"priority"
"spec prior"
"priority"
"not recom"
"spec prior"
"priority"
"priority"
"spec prior"
"priority"
"priority"
"not recom"
"spec prior"
"not recom"
"priority"
"spec prior"
"spec prior"
"priority"
"not recom"
"not recom"
"spec prior"
"spec prior"
"priority"
"priority"
"priority"
"priority"
"spec prior"
"priority"
"not recom"
"not recom"
"spec prior"
"spec prior"
"not recom"
"not recom"
"priority"
"spec prior"
"not recom"
"spec prior"
"not recom"
"not recom"
"priority"
"priority"
"priority"
"not recom"
"priority"
"spec prior"
"priority"
"priority"
"not recom"
"priority"
"not recom"
"priority"
"not recom"
"spec prior"
"priority"
"priority"
"not recom"
"not recom"
"spec prior"
"spec prior"
"not recom"
"not recom"
"very recom"
"priority"
"priority"
"not recom"
"not recom"
"spec prior"
"not recom"
"not recom"
"spec prior"
"very recom"
"not recom"
"not recom"
"not recom"
"not recom"
"priority"
"spec prior"
"spec prior"
"not recom"
"spec prior"
"priority"
"not recom"
"not recom"
"priority"
"not recom"
"not recom"
"spec prior"
"spec prior"
"not recom"
"priority"
"priority"
"not recom"
"priority"
"spec prior"
"not recom"
"not recom"
"priority"
"not recom"
"spec prior"
"not recom"
"not recom"
"not recom"
"priority"
"not recom"
"priority"
"priority"
"not recom"
"spec prior"
"spec prior"
"priority"
"spec prior"
"not recom"
"priority"
"not recom"
"spec prior"
"spec prior"
"priority"
"not recom"
"very recom"
"priority"
"not recom"
"priority"
"very recom"
"spec prior"
"priority"
"priority"
"not recom"
"spec prior"
"not recom"
"very recom"
"spec prior"
"spec prior"
"not recom"
"priority"
"priority"
"spec prior"
"priority"
"not recom"
"not recom"
"not recom"
"not recom"
"spec prior"
"priority"
"spec prior"
"not recom"
"spec prior"
"not recom"
"not recom"
"not recom"
"not recom"
"priority"
"very recom"
"spec prior"
"priority"
"spec prior"
"not recom"
"spec prior"
"spec prior"
"not recom"
"not recom"
"not recom"
"not recom"
"priority"
"not recom"
"not recom"
"priority"
"spec prior"
"not recom"
"not recom"
"not recom"
"spec prior"
"priority"
"spec prior"
"spec prior"
"not recom"
"spec prior"
"spec prior"
"not recom"
"not recom"
"priority"
"not recom"
"spec prior"
"not recom"
"priority"
"not recom"
"not recom"
"priority"
"priority"
"not recom"
"not recom"
"spec prior"
"spec prior"
"not recom"
"not recom"
"priority"
"not recom"
"not recom"
"spec prior"
"spec prior"
"not recom"
"not recom"
"spec prior"
"not recom"
"spec prior"
"not recom"
"priority"
"priority"
"priority"
"not recom"
"priority"
"not recom"
"not recom"
"not recom"
"spec prior"
"not recom"
"not recom"
"spec prior"
"not recom"
"priority"
"priority"
"not recom"
"priority"
"priority"
"very recom"
"priority"
"priority"
"spec prior"
"priority"
"priority"
"spec prior"
"priority"
"priority"
"not recom"
"very recom"
"not recom"
"spec prior"
"priority"
"priority"
"spec prior"
"not recom"
"spec prior"
"spec prior"
"not recom"
"not recom"
"not recom"
"spec prior"
"spec prior"
"not recom"
"priority"
"priority"
"very recom"
"not recom"
"priority"
"spec prior"
"spec prior"
"spec prior"
"priority"
"priority"
"not recom"
"priority"
"priority"
"spec prior"
"priority"
"spec prior"
"spec prior"
"spec prior"
"priority"
"spec prior"
"not recom"
"not recom"
"priority"
"spec prior"
"spec prior"
"priority"
"spec prior"
"priority"
"spec prior"
"very recom"
"spec prior"
"spec prior"
"not recom"
"priority"
"spec prior"
"not recom"
"priority"
"priority"
"spec prior"
"not recom"
"not recom"
"spec prior"
"not recom"
"spec prior"
"not recom"
"not recom"
"priority"
"not recom"
"priority"
"spec prior"
"priority"
"priority"
"not recom"
"very recom"
"not recom"
"priority"
"not recom"
"very recom"
"spec prior"
"not recom"
"not recom"
"not recom"
"priority"
"not recom"
"priority"
"priority"
"priority"
"not recom"
"priority"
"priority"
"not recom"
"spec prior"
"priority"
"priority"
"not recom"
"not recom"
"not recom"
"priority"
"priority"
"not recom"
"priority"
"priority"
"priority"
"priority"
"priority"
"not recom"
"priority"
"spec prior"
"priority"
"spec prior"
"spec prior"
"priority"
"spec prior"
"priority"
"not recom"
"spec prior"
"priority"
"spec prior"
"spec prior"
"priority"
"spec prior"
"priority"
"priority"
"spec prior"
"spec prior"
"priority"
"not recom"
"not recom"
"priority"
"priority"
"spec prior"
"priority"
"spec prior"
"spec prior"
"priority"
"not recom"
"priority"
"spec prior"
"spec prior"
"spec prior"
"not recom"
"priority"
"not recom"
"not recom"
"not recom"
"spec prior"
"spec prior"
"priority"
"spec prior"
"spec prior"
"spec prior"
"not recom"
"spec prior"
"priority"
"priority"
"spec prior"
"not recom"
"spec prior"
"not recom"
"not recom"
"priority"
"priority"
"priority"
"not recom"
"spec prior"
"spec prior"
"not recom"
"priority"
"priority"
"spec prior"
"not recom"
"priority"
"priority"
"priority"
"not recom"
"spec prior"
"spec prior"
"spec prior"
"priority"
"priority"
"spec prior"
"priority"
"not recom"
"priority"
"spec prior"
"spec prior"
"spec prior"
"spec prior"
"not recom"
"not recom"
"priority"
"spec prior"
"not recom"
"priority"
"not recom"
"not recom"
"priority"
"not recom"
"very recom"
"priority"
"spec prior"
"priority"
"spec prior"
"very recom"
"priority"
"priority"
"not recom"
"spec prior"
"not recom"
"spec prior"
"priority"
"not recom"
"priority"
"not recom"
"not recom"
"priority"
"spec prior"
"not recom"
"priority"
"not recom"
"very recom"
"priority"
"spec prior"
"priority"
"not recom"
"not recom"
"priority"
"priority"
"spec prior"
"priority"
"not recom"
"priority"
"spec prior"
"priority"
"spec prior"
"priority"
"spec prior"
"priority"
"spec prior"
"priority"
"spec prior"
"priority"
"spec prior"
"not recom"
"not recom"
"not recom"
"not recom"
"priority"
"priority"
"not recom"
"priority"
"spec prior"
"priority"
"priority"
"not recom"
"not recom"
"priority"
"priority"
"not recom"
"very recom"
"priority"
"spec prior"
"priority"
"priority"
"spec prior"
"spec prior"
"priority"
"very recom"
"priority"
"priority"
"not recom"
"priority"
"not recom"
"priority"
"very recom"
"spec prior"
"spec prior"
"priority"
"not recom"
"spec prior"
"spec prior"
"priority"
"priority"
"priority"
"not recom"
"not recom"
"spec prior"
"spec prior"
"priority"
"not recom"
"priority"
"priority"
"priority"
"spec prior"
"spec prior"
"spec prior"
"priority"
"not recom"
"not recom"
"not recom"
"not recom"
"priority"
"spec prior"
"not recom"
"not recom"
"spec prior"
"very recom"
"not recom"
"not recom"
"spec prior"
"spec prior"
"priority"
"not recom"
"priority"
"not recom"
"spec prior"
"priority"
"not recom"
"not recom"
"not recom"
"priority"
"not recom"
"not recom"
"spec prior"
"priority"
"priority"
"priority"
"spec prior"
"not recom"
"spec prior"
"spec prior"
"spec prior"
"not recom"
"spec prior"
"spec prior"
"not recom"
"priority"
"priority"
"priority"
"not recom"
"not recom"
"not recom"
"spec prior"
"priority"
"spec prior"
"spec prior"
"spec prior"
"spec prior"
"spec prior"
"not recom"
"spec prior"
"priority"
"priority"
"not recom"
"priority"
"priority"
"not recom"
"not recom"
"priority"
"priority"
"not recom"
"spec prior"
"priority"
"priority"
"not recom"
"not recom"
"spec prior"
"spec prior"
"not recom"
"not recom"
"spec prior"
"spec prior"
"priority"
"not recom"
"spec prior"
"priority"
"not recom"
"spec prior"
"not recom"
"priority"
"spec prior"
"priority"
"not recom"
"spec prior"
"spec prior"
"priority"
"priority"
"not recom"
"spec prior"
"priority"
"priority"
"not recom"
"priority"
"not recom"
"spec prior"
"spec prior"
"not recom"
"spec prior"
"not recom"
"spec prior"
"not recom"
"priority"
"priority"
"spec prior"
"priority"
"spec prior"
"spec prior"
"priority"
"not recom"
"not recom"
"priority"
"not recom"
"not recom"
"spec prior"
"priority"
"very recom"
"not recom"
"spec prior"
"priority"
"priority"
"not recom"
"not recom"
"spec prior"
"not recom"
"priority"
"spec prior"
"spec prior"
"very recom"
"priority"
"not recom"
"priority"
"spec prior"
"not recom"
"not recom"
"spec prior"
"not recom"
"not recom"
"spec prior"
"spec prior"
"spec prior"
"not recom"
"spec prior"
"spec prior"
"spec prior"
"spec prior"
"spec prior"
"not recom"
"priority"
"spec prior"
"priority"
"not recom"
"not recom"
"not recom"
"spec prior"
"priority"
"spec prior"
"spec prior"
"spec prior"
"priority"
"spec prior"
"not recom"
"not recom"
"not recom"
"spec prior"
"priority"
"priority"
"not recom"
"not recom"
"not recom"
"spec prior"
"priority"
"not recom"
"priority"
"priority"
"spec prior"
"spec prior"
"not recom"
"spec prior"
"not recom"
"priority"
"not recom"
"priority"
"not recom"
"not recom"
"not recom"
"spec prior"
"priority"
"not recom"
"not recom"
"priority"
"priority"
"priority"
"not recom"
"not recom"
"not recom"
"not recom"
"priority"
"not recom"
"spec prior"
"priority"
"very recom"
"spec prior"
"very recom"
"not recom"
"priority"
"not recom"
"not recom"
"not recom"
"not recom"
"priority"
"spec prior"
"priority"
"priority"
"priority"
"priority"
"not recom"
"not recom"
"priority"
"priority"
"priority"
"not recom"
"spec prior"
"not recom"
"spec prior"
"spec prior"
"not recom"
"not recom"
"not recom"
"priority"
"spec prior"
"not recom"
"priority"
"not recom"
"spec prior"
"spec prior"
"spec prior"
"spec prior"
"priority"
"priority"
"not recom"
"spec prior"
"spec prior"
"priority"
"spec prior"
"not recom"
"spec prior"
"priority"
"spec prior"
"priority"
"not recom"
"priority"
"not recom"
"not recom"
"spec prior"
"spec prior"
"priority"
"not recom"
"spec prior"
"spec prior"
"not recom"
"not recom"
"priority"
"spec prior"
"priority"
"not recom"
"not recom"
"priority"
"priority"
"not recom"
"spec prior"
"priority"
"spec prior"
"not recom"
"not recom"
"priority"
"not recom"
"spec prior"
"priority"
"priority"
"priority"
"priority"
"priority"
"not recom"
"priority"
"spec prior"
"not recom"
"spec prior"
"not recom"
"priority"
"spec prior"
"not recom"
"spec prior"
"priority"
"priority"
"spec prior"
"spec prior"
"spec prior"
"priority"
"not recom"
"priority"
"priority"
"not recom"
"priority"
"priority"
"priority"
"not recom"
"very recom"
"not recom"
"not recom"
"spec prior"
"priority"
"not recom"
"spec prior"
"not recom"
"not recom"
"spec prior"
"not recom"
"spec prior"
"priority"
"not recom"
"spec prior"
"spec prior"
"spec prior"
"spec prior"
"priority"
"priority"
"priority"
"not recom"
"spec prior"
"spec prior"
"spec prior"
"priority"
"spec prior"
"priority"
"spec prior"
"priority"
"spec prior"
"priority"
"not recom"
"not recom"
"not recom"
"priority"
"not recom"
"not recom"
"not recom"
"spec prior"
"not recom"
"not recom"
"not recom"
"priority"
"spec prior"
"spec prior"
"not recom"
"very recom"
"spec prior"
"spec prior"
"priority"
"spec prior"
"priority"
"priority"
"priority"
"priority"
"very recom"
"priority"
"priority"
"priority"
"spec prior"
"not recom"
"priority"
"not recom"
"priority"
"priority"
"spec prior"
"priority"
"priority"
"not recom"
"priority"
"spec prior"
"spec prior"
"priority"
"spec prior"
"priority"
"not recom"
"priority"
"not recom"
"not recom"
"priority"
"not recom"
"spec prior"
"spec prior"
"spec prior"
"spec prior"
"priority"
"priority"
"not recom"
"not recom"
"priority"
"not recom"
"priority"
"spec prior"
"spec prior"
"priority"
"not recom"
"very recom"
"not recom"
"priority"
"spec prior"
"priority"
"priority"
"spec prior"
"spec prior"
"spec prior"
"not recom"
"priority"
"spec prior"
"spec prior"
"not recom"
"priority"
"priority"
"not recom"
"priority"
"priority"
"not recom"
"priority"
"spec prior"
"not recom"
"very recom"
"very recom"
"priority"
"priority"
"spec prior"
"priority"
"priority"
"priority"
"spec prior"
"not recom"
"priority"
"not recom"
"not recom"
"priority"
"spec prior"
"priority"
"spec prior"
"priority"
"spec prior"
"priority"
"not recom"
"priority"
"not recom"
"spec prior"
"not recom"
"priority"
"not recom"
"priority"
"priority"
"priority"
"not recom"
"not recom"
"spec prior"
"spec prior"
"spec prior"
"not recom"
"not recom"
"spec prior"
"not recom"
"not recom"
"priority"
"not recom"
"priority"
"priority"
"priority"
"priority"
"priority"
"priority"
"priority"
"spec prior"
"priority"
"spec prior"
"spec prior"
"not recom"
"spec prior"
"spec prior"
"spec prior"
"not recom"
"spec prior"
"not recom"
"priority"
"priority"
"spec prior"
"not recom"
"priority"
"priority"
"spec prior"
"priority"
"not recom"
"priority"
"priority"
"priority"
"priority"
"not recom"
"spec prior"
"spec prior"
"spec prior"
"not recom"
"spec prior"
"not recom"
"priority"
"not recom"
"spec prior"
"not recom"
"not recom"
"not recom"
"spec prior"
"spec prior"
"not recom"
"priority"
"spec prior"
"priority"
"priority"
"not recom"
"not recom"
"priority"
"not recom"
"not recom"
"spec prior"
"priority"
"spec prior"
"priority"
"spec prior"
"spec prior"
"not recom"
"not recom"
"not recom"
"not recom"
"priority"
"priority"
"spec prior"
"priority"
"spec prior"
"priority"
"spec prior"
"spec prior"
"priority"
"priority"
"not recom"
"priority"
"spec prior"
"priority"
"priority"
"spec prior"
"priority"
"spec prior"
"priority"
"spec prior"
"spec prior"
"not recom"
"not recom"
"not recom"
"not recom"
"not recom"
"spec prior"
"not recom"
"spec prior"
"priority"
"not recom"
"not recom"
"priority"
"spec prior"
"spec prior"
"not recom"
"not recom"
"not recom"
"priority"
"spec prior"
"spec prior"
"spec prior"
"spec prior"
"spec prior"
"priority"
"very recom"
"priority"
"priority"
"not recom"
"priority"
"spec prior"
"priority"
"spec prior"
"spec prior"
"spec prior"
"priority"
"spec prior"
"priority"
"spec prior"
"not recom"
"spec prior"
"not recom"
"not recom"
"spec prior"
"priority"
"not recom"
"priority"
"priority"
"not recom"
"not recom"
"priority"
"spec prior"
"spec prior"
"not recom"
"not recom"
"priority"
"priority"
"spec prior"
"priority"
"not recom"
"priority"
"priority"
"spec prior"
"priority"
"spec prior"
"spec prior"
"spec prior"
"spec prior"
"not recom"
"spec prior"
"spec prior"
"priority"
"spec prior"
"not recom"
"priority"
"not recom"
"priority"
"priority"
"spec prior"
"spec prior"
"priority"
"spec prior"
"spec prior"
"priority"
"spec prior"
"spec prior"
"not recom"
"spec prior"
"spec prior"
"not recom"
"not recom"
"not recom"
"spec prior"
"spec prior"
"priority"
"not recom"
"spec prior"
"priority"
"priority"
"spec prior"
"not recom"
"spec prior"
"not recom"
"not recom"
"very recom"
"not recom"
"spec prior"
"priority"
"spec prior"
"priority"
"priority"
"priority"
"priority"
"spec prior"
"not recom"
"not recom"
"not recom"
"spec prior"
"not recom"
"priority"
"very recom"
"priority"
"priority"
"not recom"
"priority"
"not recom"
"priority"
"priority"
"spec prior"
"priority"
"very recom"
"not recom"
"priority"
"priority"
"priority"
"spec prior"
"priority"
"not recom"
"not recom"
"spec prior"
"not recom"
"priority"
"not recom"
"not recom"
"spec prior"
"priority"
"not recom"
"not recom"
"priority"
"not recom"
"very recom"
"priority"
"not recom"
"spec prior"
"priority"
"priority"
"spec prior"
"spec prior"
"not recom"
"priority"
"spec prior"
"not recom"
"priority"
"priority"
"spec prior"
"not recom"
"spec prior"
"priority"
"spec prior"
"spec prior"
"spec prior"
"spec prior"
"not recom"
"priority"
"priority"
"not recom"
"priority"
"spec prior"
"not recom"
"spec prior"
"spec prior"
"very recom"
"not recom"
"spec prior"
"priority"
"priority"
"not recom"
"very recom"
"priority"
"not recom"
"priority"
"priority"
"spec prior"
"priority"
"priority"
"not recom"
"not recom"
"spec prior"
"priority"
"not recom"
"priority"
"not recom"
"spec prior"
"not recom"
"spec prior"
"not recom"
"spec prior"
"not recom"
"priority"
"spec prior"
"priority"
"priority"
"very recom"
"not recom"
"priority"
"priority"
"not recom"
"not recom"
"spec prior"
"spec prior"
"spec prior"
"priority"
"not recom"
"priority"
"spec prior"
"not recom"
"spec prior"
"priority"
"spec prior"
"spec prior"
"priority"
"priority"
"priority"
"spec prior"
"not recom"
"priority"
"priority"
"spec prior"
"priority"
"priority"
"not recom"
"priority"
"spec prior"
"not recom"
"spec prior"
"priority"
"priority"
"spec prior"
"priority"
"priority"
"not recom"
"priority"
"priority"
"priority"
"spec prior"
"not recom"
"not recom"
"not recom"
"spec prior"
"spec prior"
"not recom"
"priority"
"spec prior"
"very recom"
"priority"
"priority"
"not recom"
"spec prior"
"priority"
"priority"
"priority"
"priority"
"priority"
"very recom"
"priority"
"priority"
"spec prior"
"priority"
"priority"
"priority"
"priority"
"spec prior"
"spec prior"
"not recom"
"not recom"
"priority"
"priority"
"spec prior"
"not recom"
"spec prior"
"spec prior"
"spec prior"
"spec prior"
"not recom"
"priority"
"spec prior"
"not recom"
"spec prior"
"priority"
"priority"
"spec prior"
"not recom"
"spec prior"
"priority"
"priority"
"not recom"
"spec prior"
"not recom"
"priority"
"priority"
"spec prior"
"not recom"
"spec prior"
"spec prior"
"not recom"
"not recom"
"not recom"
"spec prior"
"priority"
"not recom"
"priority"
"not recom"
"spec prior"
"spec prior"
"spec prior"
"not recom"
"not recom"
"spec prior"
"spec prior"
"not recom"
"priority"
"spec prior"
"not recom"
"priority"
"priority"
"priority"
"spec prior"
"spec prior"
"not recom"
"not recom"
"not recom"
"priority"
"priority"
"spec prior"
"not recom"
"not recom"
"priority"
"priority"
"spec prior"
"very recom"
"priority"
"priority"
"priority"
"spec prior"
"spec prior"
"not recom"
"not recom"
"spec prior"
"spec prior"
"priority"
"not recom"
"spec prior"
"priority"
"not recom"
"not recom"
"spec prior"
"not recom"
"spec prior"
"spec prior"
"not recom"
"not recom"
"not recom"
"priority"
"priority"
"not recom"
"spec prior"
"not recom"
"not recom"
"spec prior"
"spec prior"
"spec prior"
"spec prior"
"priority"
"spec prior"
"priority"
"priority"
"spec prior"
"not recom"
"not recom"
"spec prior"
"not recom"
"very recom"
"spec prior"
"spec prior"
"spec prior"
"spec prior"
"spec prior"
"not recom"
"spec prior"
"not recom"
"spec prior"
"priority"
"spec prior"
"spec prior"
"not recom"
"priority"
"very recom"
"priority"
"priority"
"spec prior"
"spec prior"
"priority"
"spec prior"
"priority"
"not recom"
"not recom"
"priority"
"not recom"
"not recom"
"spec prior"
"not recom"
"not recom"
"spec prior"
"spec prior"
"spec prior"
"not recom"
"priority"
"spec prior"
"priority"
"priority"
"not recom"
"priority"
"spec prior"
"not recom"
"priority"
"spec prior"
"spec prior"
"spec prior"
"not recom"
"priority"
"not recom"
"priority"
"not recom"
"priority"
"spec prior"
"spec prior"
"not recom"
"priority"
"not recom"
"spec prior"
"priority"
"not recom"
"very recom"
"not recom"
"spec prior"
"spec prior"
"priority"
"not recom"
"priority"
"priority"
"spec prior"
"priority"
"priority"
"not recom"
"not recom"
"priority"
"priority"
"priority"
"spec prior"
"not recom"
"spec prior"
"spec prior"
"priority"
"spec prior"
"priority"
"spec prior"
"spec prior"
"spec prior"
"spec prior"
"not recom"
"priority"
"not recom"
"priority"
"priority"
"not recom"
"priority"
"not recom"
"spec prior"
"not recom"
"spec prior"
"priority"
"not recom"
"priority"
"spec prior"
"spec prior"
"spec prior"
"spec prior"
"spec prior"
"spec prior"
"spec prior"
"not recom"
"priority"
"not recom"
"priority"
"not recom"
"not recom"
"spec prior"
"not recom"
"not recom"
"spec prior"
"priority"
"priority"
"priority"
"not recom"
"not recom"
"priority"
"not recom"
"spec prior"
"priority"
"priority"
"spec prior"
"spec prior"
"not recom"
"not recom"
"priority"
"spec prior"
"spec prior"
"not recom"
"spec prior"
"priority"
"spec prior"
"spec prior"
"not recom"
"spec prior"
"spec prior"
"priority"
"priority"
"not recom"
"not recom"
"not recom"
"not recom"
"spec prior"
"priority"
"spec prior"
"spec prior"
"priority"
"priority"
"spec prior"
"priority"
"not recom"
"priority"
"not recom"
"not recom"
"spec prior"
"priority"
"priority"
"spec prior"
"very recom"
"priority"
"not recom"
"priority"
"not recom"
"priority"
"not recom"
"priority"
"spec prior"
"not recom"
"priority"
"priority"
"priority"
"not recom"
"spec prior"
"priority"
"not recom"
"very recom"
"priority"
"spec prior"
"priority"
"spec prior"
"not recom"
"priority"
"spec prior"
"priority"
"spec prior"
"not recom"
"not recom"
"priority"
"not recom"
"priority"
"spec prior"
"not recom"
"spec prior"
"not recom"
"priority"
"not recom"
"very recom"
"not recom"
"spec prior"
"priority"
"spec prior"
"spec prior"
"priority"
"spec prior"
"spec prior"
"spec prior"
"not recom"
"not recom"
"priority"
"not recom"
"not recom"
"priority"
"spec prior"
"spec prior"
"priority"
"priority"
"not recom"
"not recom"
"priority"
"priority"
"spec prior"
"not recom"
"not recom"
"spec prior"
"priority"
"priority"
"spec prior"
"priority"
"priority"
"spec prior"
"spec prior"
"not recom"
"spec prior"
"priority"
"very recom"
"priority"
"spec prior"
"spec prior"
"not recom"
"spec prior"
"spec prior"
"not recom"
"spec prior"
"priority"
"not recom"
"spec prior"
"priority"
"not recom"
"priority"
"not recom"
"not recom"
"spec prior"
"priority"
"spec prior"
"spec prior"
"priority"
"priority"
"priority"
"not recom"
"spec prior"
"spec prior"
"spec prior"
"priority"
"not recom"
"not recom"
"not recom"
"spec prior"
"not recom"
"priority"
"not recom"
"not recom"
"spec prior"
"priority"
"spec prior"
"not recom"
"spec prior"
"spec prior"
"spec prior"
"not recom"
"priority"
"spec prior"
"spec prior"
"spec prior"
"spec prior"
"priority"
"not recom"
"priority"
"priority"